{
    "meta-version"   : "0",
    "perl"           : "6.*",
    "name"           : "Crypt::LibGcrypt",
    "version"        : "1.0.10",
    "description"    : "Yet another Raku bindings for GNU libgcrypt",
    "license"        : "Artistic-2.0",
    "build-depends"  : [ ],
    "auth"           : "zef:knarkhov",
    "api"            : "1.0",
    "test-depends"   : [ "Test", "Test::META", "Test::When" ],
    "depends"        : [
        "NativeCall",
        "NativeLibs:ver<0.0.7+>:auth<github:salortiz>"
    ],
    "authors"        : [
        "Konstantin Narkhov",
        "Curt Tilmes <curt@tilmes.org>"
    ],
    "provides"       : {
        "Crypt::LibGcrypt"               : "lib/Crypt/LibGcrypt.rakumod",
        "Crypt::LibGcrypt::CipherHandle" : "lib/Crypt/LibGcrypt/CipherHandle.rakumod",
        "Crypt::LibGcrypt::Cipher"       : "lib/Crypt/LibGcrypt/Cipher.rakumod",
        "Crypt::LibGcrypt::Constants"    : "lib/Crypt/LibGcrypt/Constants.rakumod",
        "Crypt::LibGcrypt::HashHandle"   : "lib/Crypt/LibGcrypt/HashHandle.rakumod",
        "Crypt::LibGcrypt::Hash"         : "lib/Crypt/LibGcrypt/Hash.rakumod",
        "Crypt::LibGcrypt::MACHandle"    : "lib/Crypt/LibGcrypt/MACHandle.rakumod",
        "Crypt::LibGcrypt::MAC"          : "lib/Crypt/LibGcrypt/MAC.rakumod",
        "Crypt::LibGcrypt::Passphrase"   : "lib/Crypt/LibGcrypt/Passphrase.rakumod",
        "Crypt::LibGcrypt::Random"       : "lib/Crypt/LibGcrypt/Random.rakumod",
        "Crypt::LibGcrypt::Simple"       : "lib/Crypt/LibGcrypt/Simple.rakumod"
    },
    "tags" : [
        "AES",
        "BLAKE",
        "Blowfish",
        "CASE5",
        "CMAC",
        "CRC",
        "Camellia",
        "ChaCha20",
        "Cipher",
        "DES",
        "DES3",
        "Digest",
        "GMAC",
        "GOST28147",
        "HMAC",
        "IDEA",
        "MAC",
        "MD4",
        "MD5",
        "RC4",
        "RIPEMD160",
        "SEED",
        "SHA",
        "SHA1",
        "SHA3",
        "SHAKE",
        "Salsa20",
        "Serpent",
        "TIGER",
        "Twofish",
        "crypt",
        "gcrypt",
        "libgcrypt",
        "nonce",
        "passphrase",
        "random"
    ],
    "support" : {
        "bugtracker" : "https://gitlab.com/pheix/raku-crypt-libgcrypt/-/issues",
        "source" : "https://gitlab.com/pheix/raku-crypt-libgcrypt.git"
    }
}
